G04 #@! TF.GenerationSoftware,KiCad,Pcbnew,(5.0.0-3-g5ebb6b6)*
G04 #@! TF.CreationDate,2019-04-08T21:46:59+02:00*
G04 #@! TF.ProjectId,sensor,73656E736F722E6B696361645F706362,rev?*
G04 #@! TF.SameCoordinates,Original*
G04 #@! TF.FileFunction,Copper,L2,Bot,Signal*
G04 #@! TF.FilePolarity,Positive*
%FSLAX46Y46*%
G04 Gerber Fmt 4.6, Leading zero omitted, Abs format (unit mm)*
G04 Created by KiCad (PCBNEW (5.0.0-3-g5ebb6b6)) date Monday, 08. April 2019 um 21:46:59*
%MOMM*%
%LPD*%
G01*
G04 APERTURE LIST*
G04 #@! TA.AperFunction,SMDPad,CuDef*
%ADD10C,2.800000*%
G04 #@! TD*
G04 #@! TA.AperFunction,Conductor*
%ADD11C,0.100000*%
G04 #@! TD*
G04 #@! TA.AperFunction,SMDPad,CuDef*
%ADD12C,2.200000*%
G04 #@! TD*
G04 #@! TA.AperFunction,SMDPad,CuDef*
%ADD13C,2.600000*%
G04 #@! TD*
G04 #@! TA.AperFunction,ComponentPad*
%ADD14C,2.000000*%
G04 #@! TD*
G04 #@! TA.AperFunction,SMDPad,CuDef*
%ADD15C,1.150000*%
G04 #@! TD*
G04 #@! TA.AperFunction,ComponentPad*
%ADD16C,1.800000*%
G04 #@! TD*
G04 #@! TA.AperFunction,SMDPad,CuDef*
%ADD17R,2.000000X1.300000*%
G04 #@! TD*
G04 #@! TA.AperFunction,SMDPad,CuDef*
%ADD18R,2.000000X2.000000*%
G04 #@! TD*
G04 #@! TA.AperFunction,ComponentPad*
%ADD19C,1.498000*%
G04 #@! TD*
G04 #@! TA.AperFunction,SMDPad,CuDef*
%ADD20R,1.500000X0.700000*%
G04 #@! TD*
G04 #@! TA.AperFunction,SMDPad,CuDef*
%ADD21R,0.800000X1.000000*%
G04 #@! TD*
G04 #@! TA.AperFunction,ComponentPad*
%ADD22R,1.600000X1.600000*%
G04 #@! TD*
G04 #@! TA.AperFunction,ComponentPad*
%ADD23O,1.600000X1.600000*%
G04 #@! TD*
G04 #@! TA.AperFunction,SMDPad,CuDef*
%ADD24C,2.540000*%
G04 #@! TD*
G04 #@! TA.AperFunction,BGAPad,CuDef*
%ADD25C,17.780000*%
G04 #@! TD*
G04 #@! TA.AperFunction,ViaPad*
%ADD26C,0.600000*%
G04 #@! TD*
G04 #@! TA.AperFunction,Conductor*
%ADD27C,0.250000*%
G04 #@! TD*
G04 APERTURE END LIST*
D10*
G04 #@! TO.P,J2,2*
G04 #@! TO.N,Net-(C2-Pad2)*
X111005882Y-97342596D03*
D11*
G04 #@! TD*
G04 #@! TO.N,Net-(C2-Pad2)*
G04 #@! TO.C,J2*
G36*
X111683047Y-95482100D02*
X112866378Y-98019761D01*
X110328717Y-99203092D01*
X109145386Y-96665431D01*
X111683047Y-95482100D01*
X111683047Y-95482100D01*
G37*
D12*
G04 #@! TO.P,J2,1*
G04 #@! TO.N,Net-(C1-Pad2)*
X119525175Y-93369985D03*
D11*
G04 #@! TD*
G04 #@! TO.N,Net-(C1-Pad2)*
G04 #@! TO.C,J2*
G36*
X119930448Y-91636274D02*
X121113779Y-94173936D01*
X119119902Y-95103696D01*
X117936571Y-92566034D01*
X119930448Y-91636274D01*
X119930448Y-91636274D01*
G37*
D12*
G04 #@! TO.P,J2,3*
G04 #@! TO.N,N/C*
X114585184Y-87508544D03*
D11*
G04 #@! TD*
G04 #@! TO.N,N/C*
G04 #@! TO.C,J2*
G36*
X114990457Y-85774833D02*
X116173788Y-88312495D01*
X114179911Y-89242255D01*
X112996580Y-86704593D01*
X114990457Y-85774833D01*
X114990457Y-85774833D01*
G37*
D13*
G04 #@! TO.P,J2,4*
G04 #@! TO.N,N/C*
X105500000Y-95000000D03*
D11*
G04 #@! TD*
G04 #@! TO.N,N/C*
G04 #@! TO.C,J2*
G36*
X106086535Y-93181765D02*
X107269866Y-95719427D01*
X104913465Y-96818235D01*
X103730134Y-94280573D01*
X106086535Y-93181765D01*
X106086535Y-93181765D01*
G37*
D14*
G04 #@! TO.P,BZ1,1*
G04 #@! TO.N,Net-(BZ1-Pad1)*
X76228671Y-99516730D03*
D11*
G04 #@! TD*
G04 #@! TO.N,Net-(BZ1-Pad1)*
G04 #@! TO.C,BZ1*
G36*
X77387127Y-100327890D02*
X75417511Y-100675186D01*
X75070215Y-98705570D01*
X77039831Y-98358274D01*
X77387127Y-100327890D01*
X77387127Y-100327890D01*
G37*
D14*
G04 #@! TO.P,BZ1,2*
G04 #@! TO.N,Net-(BZ1-Pad2)*
X74908945Y-92032191D03*
G04 #@! TD*
D11*
G04 #@! TO.N,Net-(C1-Pad1)*
G04 #@! TO.C,C1*
G36*
X90764505Y-105981204D02*
X90788773Y-105984804D01*
X90812572Y-105990765D01*
X90835671Y-105999030D01*
X90857850Y-106009520D01*
X90878893Y-106022132D01*
X90898599Y-106036747D01*
X90916777Y-106053223D01*
X90933253Y-106071401D01*
X90947868Y-106091107D01*
X90960480Y-106112150D01*
X90970970Y-106134329D01*
X90979235Y-106157428D01*
X90985196Y-106181227D01*
X90988796Y-106205495D01*
X90990000Y-106229999D01*
X90990000Y-107130001D01*
X90988796Y-107154505D01*
X90985196Y-107178773D01*
X90979235Y-107202572D01*
X90970970Y-107225671D01*
X90960480Y-107247850D01*
X90947868Y-107268893D01*
X90933253Y-107288599D01*
X90916777Y-107306777D01*
X90898599Y-107323253D01*
X90878893Y-107337868D01*
X90857850Y-107350480D01*
X90835671Y-107360970D01*
X90812572Y-107369235D01*
X90788773Y-107375196D01*
X90764505Y-107378796D01*
X90740001Y-107380000D01*
X90089999Y-107380000D01*
X90065495Y-107378796D01*
X90041227Y-107375196D01*
X90017428Y-107369235D01*
X89994329Y-107360970D01*
X89972150Y-107350480D01*
X89951107Y-107337868D01*
X89931401Y-107323253D01*
X89913223Y-107306777D01*
X89896747Y-107288599D01*
X89882132Y-107268893D01*
X89869520Y-107247850D01*
X89859030Y-107225671D01*
X89850765Y-107202572D01*
X89844804Y-107178773D01*
X89841204Y-107154505D01*
X89840000Y-107130001D01*
X89840000Y-106229999D01*
X89841204Y-106205495D01*
X89844804Y-106181227D01*
X89850765Y-106157428D01*
X89859030Y-106134329D01*
X89869520Y-106112150D01*
X89882132Y-106091107D01*
X89896747Y-106071401D01*
X89913223Y-106053223D01*
X89931401Y-106036747D01*
X89951107Y-106022132D01*
X89972150Y-106009520D01*
X89994329Y-105999030D01*
X90017428Y-105990765D01*
X90041227Y-105984804D01*
X90065495Y-105981204D01*
X90089999Y-105980000D01*
X90740001Y-105980000D01*
X90764505Y-105981204D01*
X90764505Y-105981204D01*
G37*
D15*
G04 #@! TD*
G04 #@! TO.P,C1,1*
G04 #@! TO.N,Net-(C1-Pad1)*
X90415000Y-106680000D03*
D11*
G04 #@! TO.N,Net-(C1-Pad2)*
G04 #@! TO.C,C1*
G36*
X92814505Y-105981204D02*
X92838773Y-105984804D01*
X92862572Y-105990765D01*
X92885671Y-105999030D01*
X92907850Y-106009520D01*
X92928893Y-106022132D01*
X92948599Y-106036747D01*
X92966777Y-106053223D01*
X92983253Y-106071401D01*
X92997868Y-106091107D01*
X93010480Y-106112150D01*
X93020970Y-106134329D01*
X93029235Y-106157428D01*
X93035196Y-106181227D01*
X93038796Y-106205495D01*
X93040000Y-106229999D01*
X93040000Y-107130001D01*
X93038796Y-107154505D01*
X93035196Y-107178773D01*
X93029235Y-107202572D01*
X93020970Y-107225671D01*
X93010480Y-107247850D01*
X92997868Y-107268893D01*
X92983253Y-107288599D01*
X92966777Y-107306777D01*
X92948599Y-107323253D01*
X92928893Y-107337868D01*
X92907850Y-107350480D01*
X92885671Y-107360970D01*
X92862572Y-107369235D01*
X92838773Y-107375196D01*
X92814505Y-107378796D01*
X92790001Y-107380000D01*
X92139999Y-107380000D01*
X92115495Y-107378796D01*
X92091227Y-107375196D01*
X92067428Y-107369235D01*
X92044329Y-107360970D01*
X92022150Y-107350480D01*
X92001107Y-107337868D01*
X91981401Y-107323253D01*
X91963223Y-107306777D01*
X91946747Y-107288599D01*
X91932132Y-107268893D01*
X91919520Y-107247850D01*
X91909030Y-107225671D01*
X91900765Y-107202572D01*
X91894804Y-107178773D01*
X91891204Y-107154505D01*
X91890000Y-107130001D01*
X91890000Y-106229999D01*
X91891204Y-106205495D01*
X91894804Y-106181227D01*
X91900765Y-106157428D01*
X91909030Y-106134329D01*
X91919520Y-106112150D01*
X91932132Y-106091107D01*
X91946747Y-106071401D01*
X91963223Y-106053223D01*
X91981401Y-106036747D01*
X92001107Y-106022132D01*
X92022150Y-106009520D01*
X92044329Y-105999030D01*
X92067428Y-105990765D01*
X92091227Y-105984804D01*
X92115495Y-105981204D01*
X92139999Y-105980000D01*
X92790001Y-105980000D01*
X92814505Y-105981204D01*
X92814505Y-105981204D01*
G37*
D15*
G04 #@! TD*
G04 #@! TO.P,C1,2*
G04 #@! TO.N,Net-(C1-Pad2)*
X92465000Y-106680000D03*
D11*
G04 #@! TO.N,Net-(C2-Pad2)*
G04 #@! TO.C,C2*
G36*
X119974505Y-98401204D02*
X119998773Y-98404804D01*
X120022572Y-98410765D01*
X120045671Y-98419030D01*
X120067850Y-98429520D01*
X120088893Y-98442132D01*
X120108599Y-98456747D01*
X120126777Y-98473223D01*
X120143253Y-98491401D01*
X120157868Y-98511107D01*
X120170480Y-98532150D01*
X120180970Y-98554329D01*
X120189235Y-98577428D01*
X120195196Y-98601227D01*
X120198796Y-98625495D01*
X120200000Y-98649999D01*
X120200000Y-99300001D01*
X120198796Y-99324505D01*
X120195196Y-99348773D01*
X120189235Y-99372572D01*
X120180970Y-99395671D01*
X120170480Y-99417850D01*
X120157868Y-99438893D01*
X120143253Y-99458599D01*
X120126777Y-99476777D01*
X120108599Y-99493253D01*
X120088893Y-99507868D01*
X120067850Y-99520480D01*
X120045671Y-99530970D01*
X120022572Y-99539235D01*
X119998773Y-99545196D01*
X119974505Y-99548796D01*
X119950001Y-99550000D01*
X119049999Y-99550000D01*
X119025495Y-99548796D01*
X119001227Y-99545196D01*
X118977428Y-99539235D01*
X118954329Y-99530970D01*
X118932150Y-99520480D01*
X118911107Y-99507868D01*
X118891401Y-99493253D01*
X118873223Y-99476777D01*
X118856747Y-99458599D01*
X118842132Y-99438893D01*
X118829520Y-99417850D01*
X118819030Y-99395671D01*
X118810765Y-99372572D01*
X118804804Y-99348773D01*
X118801204Y-99324505D01*
X118800000Y-99300001D01*
X118800000Y-98649999D01*
X118801204Y-98625495D01*
X118804804Y-98601227D01*
X118810765Y-98577428D01*
X118819030Y-98554329D01*
X118829520Y-98532150D01*
X118842132Y-98511107D01*
X118856747Y-98491401D01*
X118873223Y-98473223D01*
X118891401Y-98456747D01*
X118911107Y-98442132D01*
X118932150Y-98429520D01*
X118954329Y-98419030D01*
X118977428Y-98410765D01*
X119001227Y-98404804D01*
X119025495Y-98401204D01*
X119049999Y-98400000D01*
X119950001Y-98400000D01*
X119974505Y-98401204D01*
X119974505Y-98401204D01*
G37*
D15*
G04 #@! TD*
G04 #@! TO.P,C2,2*
G04 #@! TO.N,Net-(C2-Pad2)*
X119500000Y-98975000D03*
D11*
G04 #@! TO.N,Net-(C2-Pad1)*
G04 #@! TO.C,C2*
G36*
X119974505Y-100451204D02*
X119998773Y-100454804D01*
X120022572Y-100460765D01*
X120045671Y-100469030D01*
X120067850Y-100479520D01*
X120088893Y-100492132D01*
X120108599Y-100506747D01*
X120126777Y-100523223D01*
X120143253Y-100541401D01*
X120157868Y-100561107D01*
X120170480Y-100582150D01*
X120180970Y-100604329D01*
X120189235Y-100627428D01*
X120195196Y-100651227D01*
X120198796Y-100675495D01*
X120200000Y-100699999D01*
X120200000Y-101350001D01*
X120198796Y-101374505D01*
X120195196Y-101398773D01*
X120189235Y-101422572D01*
X120180970Y-101445671D01*
X120170480Y-101467850D01*
X120157868Y-101488893D01*
X120143253Y-101508599D01*
X120126777Y-101526777D01*
X120108599Y-101543253D01*
X120088893Y-101557868D01*
X120067850Y-101570480D01*
X120045671Y-101580970D01*
X120022572Y-101589235D01*
X119998773Y-101595196D01*
X119974505Y-101598796D01*
X119950001Y-101600000D01*
X119049999Y-101600000D01*
X119025495Y-101598796D01*
X119001227Y-101595196D01*
X118977428Y-101589235D01*
X118954329Y-101580970D01*
X118932150Y-101570480D01*
X118911107Y-101557868D01*
X118891401Y-101543253D01*
X118873223Y-101526777D01*
X118856747Y-101508599D01*
X118842132Y-101488893D01*
X118829520Y-101467850D01*
X118819030Y-101445671D01*
X118810765Y-101422572D01*
X118804804Y-101398773D01*
X118801204Y-101374505D01*
X118800000Y-101350001D01*
X118800000Y-100699999D01*
X118801204Y-100675495D01*
X118804804Y-100651227D01*
X118810765Y-100627428D01*
X118819030Y-100604329D01*
X118829520Y-100582150D01*
X118842132Y-100561107D01*
X118856747Y-100541401D01*
X118873223Y-100523223D01*
X118891401Y-100506747D01*
X118911107Y-100492132D01*
X118932150Y-100479520D01*
X118954329Y-100469030D01*
X118977428Y-100460765D01*
X119001227Y-100454804D01*
X119025495Y-100451204D01*
X119049999Y-100450000D01*
X119950001Y-100450000D01*
X119974505Y-100451204D01*
X119974505Y-100451204D01*
G37*
D15*
G04 #@! TD*
G04 #@! TO.P,C2,1*
G04 #@! TO.N,Net-(C2-Pad1)*
X119500000Y-101025000D03*
D16*
G04 #@! TO.P,D1,1*
G04 #@! TO.N,Net-(C1-Pad2)*
X104376560Y-75111161D03*
D11*
G04 #@! TD*
G04 #@! TO.N,Net-(C1-Pad2)*
G04 #@! TO.C,D1*
G36*
X104894251Y-73948407D02*
X105539314Y-75628852D01*
X103858869Y-76273915D01*
X103213806Y-74593470D01*
X104894251Y-73948407D01*
X104894251Y-73948407D01*
G37*
D16*
G04 #@! TO.P,D1,2*
G04 #@! TO.N,Net-(D1-Pad2)*
X102005266Y-76021416D03*
G04 #@! TD*
D11*
G04 #@! TO.N,Net-(C1-Pad2)*
G04 #@! TO.C,R1*
G36*
X105384505Y-122361204D02*
X105408773Y-122364804D01*
X105432572Y-122370765D01*
X105455671Y-122379030D01*
X105477850Y-122389520D01*
X105498893Y-122402132D01*
X105518599Y-122416747D01*
X105536777Y-122433223D01*
X105553253Y-122451401D01*
X105567868Y-122471107D01*
X105580480Y-122492150D01*
X105590970Y-122514329D01*
X105599235Y-122537428D01*
X105605196Y-122561227D01*
X105608796Y-122585495D01*
X105610000Y-122609999D01*
X105610000Y-123260001D01*
X105608796Y-123284505D01*
X105605196Y-123308773D01*
X105599235Y-123332572D01*
X105590970Y-123355671D01*
X105580480Y-123377850D01*
X105567868Y-123398893D01*
X105553253Y-123418599D01*
X105536777Y-123436777D01*
X105518599Y-123453253D01*
X105498893Y-123467868D01*
X105477850Y-123480480D01*
X105455671Y-123490970D01*
X105432572Y-123499235D01*
X105408773Y-123505196D01*
X105384505Y-123508796D01*
X105360001Y-123510000D01*
X104459999Y-123510000D01*
X104435495Y-123508796D01*
X104411227Y-123505196D01*
X104387428Y-123499235D01*
X104364329Y-123490970D01*
X104342150Y-123480480D01*
X104321107Y-123467868D01*
X104301401Y-123453253D01*
X104283223Y-123436777D01*
X104266747Y-123418599D01*
X104252132Y-123398893D01*
X104239520Y-123377850D01*
X104229030Y-123355671D01*
X104220765Y-123332572D01*
X104214804Y-123308773D01*
X104211204Y-123284505D01*
X104210000Y-123260001D01*
X104210000Y-122609999D01*
X104211204Y-122585495D01*
X104214804Y-122561227D01*
X104220765Y-122537428D01*
X104229030Y-122514329D01*
X104239520Y-122492150D01*
X104252132Y-122471107D01*
X104266747Y-122451401D01*
X104283223Y-122433223D01*
X104301401Y-122416747D01*
X104321107Y-122402132D01*
X104342150Y-122389520D01*
X104364329Y-122379030D01*
X104387428Y-122370765D01*
X104411227Y-122364804D01*
X104435495Y-122361204D01*
X104459999Y-122360000D01*
X105360001Y-122360000D01*
X105384505Y-122361204D01*
X105384505Y-122361204D01*
G37*
D15*
G04 #@! TD*
G04 #@! TO.P,R1,1*
G04 #@! TO.N,Net-(C1-Pad2)*
X104910000Y-122935000D03*
D11*
G04 #@! TO.N,Net-(R1-Pad2)*
G04 #@! TO.C,R1*
G36*
X105384505Y-124411204D02*
X105408773Y-124414804D01*
X105432572Y-124420765D01*
X105455671Y-124429030D01*
X105477850Y-124439520D01*
X105498893Y-124452132D01*
X105518599Y-124466747D01*
X105536777Y-124483223D01*
X105553253Y-124501401D01*
X105567868Y-124521107D01*
X105580480Y-124542150D01*
X105590970Y-124564329D01*
X105599235Y-124587428D01*
X105605196Y-124611227D01*
X105608796Y-124635495D01*
X105610000Y-124659999D01*
X105610000Y-125310001D01*
X105608796Y-125334505D01*
X105605196Y-125358773D01*
X105599235Y-125382572D01*
X105590970Y-125405671D01*
X105580480Y-125427850D01*
X105567868Y-125448893D01*
X105553253Y-125468599D01*
X105536777Y-125486777D01*
X105518599Y-125503253D01*
X105498893Y-125517868D01*
X105477850Y-125530480D01*
X105455671Y-125540970D01*
X105432572Y-125549235D01*
X105408773Y-125555196D01*
X105384505Y-125558796D01*
X105360001Y-125560000D01*
X104459999Y-125560000D01*
X104435495Y-125558796D01*
X104411227Y-125555196D01*
X104387428Y-125549235D01*
X104364329Y-125540970D01*
X104342150Y-125530480D01*
X104321107Y-125517868D01*
X104301401Y-125503253D01*
X104283223Y-125486777D01*
X104266747Y-125468599D01*
X104252132Y-125448893D01*
X104239520Y-125427850D01*
X104229030Y-125405671D01*
X104220765Y-125382572D01*
X104214804Y-125358773D01*
X104211204Y-125334505D01*
X104210000Y-125310001D01*
X104210000Y-124659999D01*
X104211204Y-124635495D01*
X104214804Y-124611227D01*
X104220765Y-124587428D01*
X104229030Y-124564329D01*
X104239520Y-124542150D01*
X104252132Y-124521107D01*
X104266747Y-124501401D01*
X104283223Y-124483223D01*
X104301401Y-124466747D01*
X104321107Y-124452132D01*
X104342150Y-124439520D01*
X104364329Y-124429030D01*
X104387428Y-124420765D01*
X104411227Y-124414804D01*
X104435495Y-124411204D01*
X104459999Y-124410000D01*
X105360001Y-124410000D01*
X105384505Y-124411204D01*
X105384505Y-124411204D01*
G37*
D15*
G04 #@! TD*
G04 #@! TO.P,R1,2*
G04 #@! TO.N,Net-(R1-Pad2)*
X104910000Y-124985000D03*
D11*
G04 #@! TO.N,Net-(D1-Pad2)*
G04 #@! TO.C,R2*
G36*
X107274505Y-69151204D02*
X107298773Y-69154804D01*
X107322572Y-69160765D01*
X107345671Y-69169030D01*
X107367850Y-69179520D01*
X107388893Y-69192132D01*
X107408599Y-69206747D01*
X107426777Y-69223223D01*
X107443253Y-69241401D01*
X107457868Y-69261107D01*
X107470480Y-69282150D01*
X107480970Y-69304329D01*
X107489235Y-69327428D01*
X107495196Y-69351227D01*
X107498796Y-69375495D01*
X107500000Y-69399999D01*
X107500000Y-70300001D01*
X107498796Y-70324505D01*
X107495196Y-70348773D01*
X107489235Y-70372572D01*
X107480970Y-70395671D01*
X107470480Y-70417850D01*
X107457868Y-70438893D01*
X107443253Y-70458599D01*
X107426777Y-70476777D01*
X107408599Y-70493253D01*
X107388893Y-70507868D01*
X107367850Y-70520480D01*
X107345671Y-70530970D01*
X107322572Y-70539235D01*
X107298773Y-70545196D01*
X107274505Y-70548796D01*
X107250001Y-70550000D01*
X106599999Y-70550000D01*
X106575495Y-70548796D01*
X106551227Y-70545196D01*
X106527428Y-70539235D01*
X106504329Y-70530970D01*
X106482150Y-70520480D01*
X106461107Y-70507868D01*
X106441401Y-70493253D01*
X106423223Y-70476777D01*
X106406747Y-70458599D01*
X106392132Y-70438893D01*
X106379520Y-70417850D01*
X106369030Y-70395671D01*
X106360765Y-70372572D01*
X106354804Y-70348773D01*
X106351204Y-70324505D01*
X106350000Y-70300001D01*
X106350000Y-69399999D01*
X106351204Y-69375495D01*
X106354804Y-69351227D01*
X106360765Y-69327428D01*
X106369030Y-69304329D01*
X106379520Y-69282150D01*
X106392132Y-69261107D01*
X106406747Y-69241401D01*
X106423223Y-69223223D01*
X106441401Y-69206747D01*
X106461107Y-69192132D01*
X106482150Y-69179520D01*
X106504329Y-69169030D01*
X106527428Y-69160765D01*
X106551227Y-69154804D01*
X106575495Y-69151204D01*
X106599999Y-69150000D01*
X107250001Y-69150000D01*
X107274505Y-69151204D01*
X107274505Y-69151204D01*
G37*
D15*
G04 #@! TD*
G04 #@! TO.P,R2,2*
G04 #@! TO.N,Net-(D1-Pad2)*
X106925000Y-69850000D03*
D11*
G04 #@! TO.N,/worm2*
G04 #@! TO.C,R2*
G36*
X109324505Y-69151204D02*
X109348773Y-69154804D01*
X109372572Y-69160765D01*
X109395671Y-69169030D01*
X109417850Y-69179520D01*
X109438893Y-69192132D01*
X109458599Y-69206747D01*
X109476777Y-69223223D01*
X109493253Y-69241401D01*
X109507868Y-69261107D01*
X109520480Y-69282150D01*
X109530970Y-69304329D01*
X109539235Y-69327428D01*
X109545196Y-69351227D01*
X109548796Y-69375495D01*
X109550000Y-69399999D01*
X109550000Y-70300001D01*
X109548796Y-70324505D01*
X109545196Y-70348773D01*
X109539235Y-70372572D01*
X109530970Y-70395671D01*
X109520480Y-70417850D01*
X109507868Y-70438893D01*
X109493253Y-70458599D01*
X109476777Y-70476777D01*
X109458599Y-70493253D01*
X109438893Y-70507868D01*
X109417850Y-70520480D01*
X109395671Y-70530970D01*
X109372572Y-70539235D01*
X109348773Y-70545196D01*
X109324505Y-70548796D01*
X109300001Y-70550000D01*
X108649999Y-70550000D01*
X108625495Y-70548796D01*
X108601227Y-70545196D01*
X108577428Y-70539235D01*
X108554329Y-70530970D01*
X108532150Y-70520480D01*
X108511107Y-70507868D01*
X108491401Y-70493253D01*
X108473223Y-70476777D01*
X108456747Y-70458599D01*
X108442132Y-70438893D01*
X108429520Y-70417850D01*
X108419030Y-70395671D01*
X108410765Y-70372572D01*
X108404804Y-70348773D01*
X108401204Y-70324505D01*
X108400000Y-70300001D01*
X108400000Y-69399999D01*
X108401204Y-69375495D01*
X108404804Y-69351227D01*
X108410765Y-69327428D01*
X108419030Y-69304329D01*
X108429520Y-69282150D01*
X108442132Y-69261107D01*
X108456747Y-69241401D01*
X108473223Y-69223223D01*
X108491401Y-69206747D01*
X108511107Y-69192132D01*
X108532150Y-69179520D01*
X108554329Y-69169030D01*
X108577428Y-69160765D01*
X108601227Y-69154804D01*
X108625495Y-69151204D01*
X108649999Y-69150000D01*
X109300001Y-69150000D01*
X109324505Y-69151204D01*
X109324505Y-69151204D01*
G37*
D15*
G04 #@! TD*
G04 #@! TO.P,R2,1*
G04 #@! TO.N,/worm2*
X108975000Y-69850000D03*
D11*
G04 #@! TO.N,Net-(C1-Pad2)*
G04 #@! TO.C,R3*
G36*
X92814505Y-100901204D02*
X92838773Y-100904804D01*
X92862572Y-100910765D01*
X92885671Y-100919030D01*
X92907850Y-100929520D01*
X92928893Y-100942132D01*
X92948599Y-100956747D01*
X92966777Y-100973223D01*
X92983253Y-100991401D01*
X92997868Y-101011107D01*
X93010480Y-101032150D01*
X93020970Y-101054329D01*
X93029235Y-101077428D01*
X93035196Y-101101227D01*
X93038796Y-101125495D01*
X93040000Y-101149999D01*
X93040000Y-102050001D01*
X93038796Y-102074505D01*
X93035196Y-102098773D01*
X93029235Y-102122572D01*
X93020970Y-102145671D01*
X93010480Y-102167850D01*
X92997868Y-102188893D01*
X92983253Y-102208599D01*
X92966777Y-102226777D01*
X92948599Y-102243253D01*
X92928893Y-102257868D01*
X92907850Y-102270480D01*
X92885671Y-102280970D01*
X92862572Y-102289235D01*
X92838773Y-102295196D01*
X92814505Y-102298796D01*
X92790001Y-102300000D01*
X92139999Y-102300000D01*
X92115495Y-102298796D01*
X92091227Y-102295196D01*
X92067428Y-102289235D01*
X92044329Y-102280970D01*
X92022150Y-102270480D01*
X92001107Y-102257868D01*
X91981401Y-102243253D01*
X91963223Y-102226777D01*
X91946747Y-102208599D01*
X91932132Y-102188893D01*
X91919520Y-102167850D01*
X91909030Y-102145671D01*
X91900765Y-102122572D01*
X91894804Y-102098773D01*
X91891204Y-102074505D01*
X91890000Y-102050001D01*
X91890000Y-101149999D01*
X91891204Y-101125495D01*
X91894804Y-101101227D01*
X91900765Y-101077428D01*
X91909030Y-101054329D01*
X91919520Y-101032150D01*
X91932132Y-101011107D01*
X91946747Y-100991401D01*
X91963223Y-100973223D01*
X91981401Y-100956747D01*
X92001107Y-100942132D01*
X92022150Y-100929520D01*
X92044329Y-100919030D01*
X92067428Y-100910765D01*
X92091227Y-100904804D01*
X92115495Y-100901204D01*
X92139999Y-100900000D01*
X92790001Y-100900000D01*
X92814505Y-100901204D01*
X92814505Y-100901204D01*
G37*
D15*
G04 #@! TD*
G04 #@! TO.P,R3,2*
G04 #@! TO.N,Net-(C1-Pad2)*
X92465000Y-101600000D03*
D11*
G04 #@! TO.N,Net-(BZ1-Pad2)*
G04 #@! TO.C,R3*
G36*
X90764505Y-100901204D02*
X90788773Y-100904804D01*
X90812572Y-100910765D01*
X90835671Y-100919030D01*
X90857850Y-100929520D01*
X90878893Y-100942132D01*
X90898599Y-100956747D01*
X90916777Y-100973223D01*
X90933253Y-100991401D01*
X90947868Y-101011107D01*
X90960480Y-101032150D01*
X90970970Y-101054329D01*
X90979235Y-101077428D01*
X90985196Y-101101227D01*
X90988796Y-101125495D01*
X90990000Y-101149999D01*
X90990000Y-102050001D01*
X90988796Y-102074505D01*
X90985196Y-102098773D01*
X90979235Y-102122572D01*
X90970970Y-102145671D01*
X90960480Y-102167850D01*
X90947868Y-102188893D01*
X90933253Y-102208599D01*
X90916777Y-102226777D01*
X90898599Y-102243253D01*
X90878893Y-102257868D01*
X90857850Y-102270480D01*
X90835671Y-102280970D01*
X90812572Y-102289235D01*
X90788773Y-102295196D01*
X90764505Y-102298796D01*
X90740001Y-102300000D01*
X90089999Y-102300000D01*
X90065495Y-102298796D01*
X90041227Y-102295196D01*
X90017428Y-102289235D01*
X89994329Y-102280970D01*
X89972150Y-102270480D01*
X89951107Y-102257868D01*
X89931401Y-102243253D01*
X89913223Y-102226777D01*
X89896747Y-102208599D01*
X89882132Y-102188893D01*
X89869520Y-102167850D01*
X89859030Y-102145671D01*
X89850765Y-102122572D01*
X89844804Y-102098773D01*
X89841204Y-102074505D01*
X89840000Y-102050001D01*
X89840000Y-101149999D01*
X89841204Y-101125495D01*
X89844804Y-101101227D01*
X89850765Y-101077428D01*
X89859030Y-101054329D01*
X89869520Y-101032150D01*
X89882132Y-101011107D01*
X89896747Y-100991401D01*
X89913223Y-100973223D01*
X89931401Y-100956747D01*
X89951107Y-100942132D01*
X89972150Y-100929520D01*
X89994329Y-100919030D01*
X90017428Y-100910765D01*
X90041227Y-100904804D01*
X90065495Y-100901204D01*
X90089999Y-100900000D01*
X90740001Y-100900000D01*
X90764505Y-100901204D01*
X90764505Y-100901204D01*
G37*
D15*
G04 #@! TD*
G04 #@! TO.P,R3,1*
G04 #@! TO.N,Net-(BZ1-Pad2)*
X90415000Y-101600000D03*
D11*
G04 #@! TO.N,Net-(C1-Pad1)*
G04 #@! TO.C,R4*
G36*
X108544505Y-111061204D02*
X108568773Y-111064804D01*
X108592572Y-111070765D01*
X108615671Y-111079030D01*
X108637850Y-111089520D01*
X108658893Y-111102132D01*
X108678599Y-111116747D01*
X108696777Y-111133223D01*
X108713253Y-111151401D01*
X108727868Y-111171107D01*
X108740480Y-111192150D01*
X108750970Y-111214329D01*
X108759235Y-111237428D01*
X108765196Y-111261227D01*
X108768796Y-111285495D01*
X108770000Y-111309999D01*
X108770000Y-112210001D01*
X108768796Y-112234505D01*
X108765196Y-112258773D01*
X108759235Y-112282572D01*
X108750970Y-112305671D01*
X108740480Y-112327850D01*
X108727868Y-112348893D01*
X108713253Y-112368599D01*
X108696777Y-112386777D01*
X108678599Y-112403253D01*
X108658893Y-112417868D01*
X108637850Y-112430480D01*
X108615671Y-112440970D01*
X108592572Y-112449235D01*
X108568773Y-112455196D01*
X108544505Y-112458796D01*
X108520001Y-112460000D01*
X107869999Y-112460000D01*
X107845495Y-112458796D01*
X107821227Y-112455196D01*
X107797428Y-112449235D01*
X107774329Y-112440970D01*
X107752150Y-112430480D01*
X107731107Y-112417868D01*
X107711401Y-112403253D01*
X107693223Y-112386777D01*
X107676747Y-112368599D01*
X107662132Y-112348893D01*
X107649520Y-112327850D01*
X107639030Y-112305671D01*
X107630765Y-112282572D01*
X107624804Y-112258773D01*
X107621204Y-112234505D01*
X107620000Y-112210001D01*
X107620000Y-111309999D01*
X107621204Y-111285495D01*
X107624804Y-111261227D01*
X107630765Y-111237428D01*
X107639030Y-111214329D01*
X107649520Y-111192150D01*
X107662132Y-111171107D01*
X107676747Y-111151401D01*
X107693223Y-111133223D01*
X107711401Y-111116747D01*
X107731107Y-111102132D01*
X107752150Y-111089520D01*
X107774329Y-111079030D01*
X107797428Y-111070765D01*
X107821227Y-111064804D01*
X107845495Y-111061204D01*
X107869999Y-111060000D01*
X108520001Y-111060000D01*
X108544505Y-111061204D01*
X108544505Y-111061204D01*
G37*
D15*
G04 #@! TD*
G04 #@! TO.P,R4,1*
G04 #@! TO.N,Net-(C1-Pad1)*
X108195000Y-111760000D03*
D11*
G04 #@! TO.N,Net-(C2-Pad1)*
G04 #@! TO.C,R4*
G36*
X110594505Y-111061204D02*
X110618773Y-111064804D01*
X110642572Y-111070765D01*
X110665671Y-111079030D01*
X110687850Y-111089520D01*
X110708893Y-111102132D01*
X110728599Y-111116747D01*
X110746777Y-111133223D01*
X110763253Y-111151401D01*
X110777868Y-111171107D01*
X110790480Y-111192150D01*
X110800970Y-111214329D01*
X110809235Y-111237428D01*
X110815196Y-111261227D01*
X110818796Y-111285495D01*
X110820000Y-111309999D01*
X110820000Y-112210001D01*
X110818796Y-112234505D01*
X110815196Y-112258773D01*
X110809235Y-112282572D01*
X110800970Y-112305671D01*
X110790480Y-112327850D01*
X110777868Y-112348893D01*
X110763253Y-112368599D01*
X110746777Y-112386777D01*
X110728599Y-112403253D01*
X110708893Y-112417868D01*
X110687850Y-112430480D01*
X110665671Y-112440970D01*
X110642572Y-112449235D01*
X110618773Y-112455196D01*
X110594505Y-112458796D01*
X110570001Y-112460000D01*
X109919999Y-112460000D01*
X109895495Y-112458796D01*
X109871227Y-112455196D01*
X109847428Y-112449235D01*
X109824329Y-112440970D01*
X109802150Y-112430480D01*
X109781107Y-112417868D01*
X109761401Y-112403253D01*
X109743223Y-112386777D01*
X109726747Y-112368599D01*
X109712132Y-112348893D01*
X109699520Y-112327850D01*
X109689030Y-112305671D01*
X109680765Y-112282572D01*
X109674804Y-112258773D01*
X109671204Y-112234505D01*
X109670000Y-112210001D01*
X109670000Y-111309999D01*
X109671204Y-111285495D01*
X109674804Y-111261227D01*
X109680765Y-111237428D01*
X109689030Y-111214329D01*
X109699520Y-111192150D01*
X109712132Y-111171107D01*
X109726747Y-111151401D01*
X109743223Y-111133223D01*
X109761401Y-111116747D01*
X109781107Y-111102132D01*
X109802150Y-111089520D01*
X109824329Y-111079030D01*
X109847428Y-111070765D01*
X109871227Y-111064804D01*
X109895495Y-111061204D01*
X109919999Y-111060000D01*
X110570001Y-111060000D01*
X110594505Y-111061204D01*
X110594505Y-111061204D01*
G37*
D15*
G04 #@! TD*
G04 #@! TO.P,R4,2*
G04 #@! TO.N,Net-(C2-Pad1)*
X110245000Y-111760000D03*
D11*
G04 #@! TO.N,Net-(C1-Pad2)*
G04 #@! TO.C,R5*
G36*
X105759505Y-114871204D02*
X105783773Y-114874804D01*
X105807572Y-114880765D01*
X105830671Y-114889030D01*
X105852850Y-114899520D01*
X105873893Y-114912132D01*
X105893599Y-114926747D01*
X105911777Y-114943223D01*
X105928253Y-114961401D01*
X105942868Y-114981107D01*
X105955480Y-115002150D01*
X105965970Y-115024329D01*
X105974235Y-115047428D01*
X105980196Y-115071227D01*
X105983796Y-115095495D01*
X105985000Y-115119999D01*
X105985000Y-116020001D01*
X105983796Y-116044505D01*
X105980196Y-116068773D01*
X105974235Y-116092572D01*
X105965970Y-116115671D01*
X105955480Y-116137850D01*
X105942868Y-116158893D01*
X105928253Y-116178599D01*
X105911777Y-116196777D01*
X105893599Y-116213253D01*
X105873893Y-116227868D01*
X105852850Y-116240480D01*
X105830671Y-116250970D01*
X105807572Y-116259235D01*
X105783773Y-116265196D01*
X105759505Y-116268796D01*
X105735001Y-116270000D01*
X105084999Y-116270000D01*
X105060495Y-116268796D01*
X105036227Y-116265196D01*
X105012428Y-116259235D01*
X104989329Y-116250970D01*
X104967150Y-116240480D01*
X104946107Y-116227868D01*
X104926401Y-116213253D01*
X104908223Y-116196777D01*
X104891747Y-116178599D01*
X104877132Y-116158893D01*
X104864520Y-116137850D01*
X104854030Y-116115671D01*
X104845765Y-116092572D01*
X104839804Y-116068773D01*
X104836204Y-116044505D01*
X104835000Y-116020001D01*
X104835000Y-115119999D01*
X104836204Y-115095495D01*
X104839804Y-115071227D01*
X104845765Y-115047428D01*
X104854030Y-115024329D01*
X104864520Y-115002150D01*
X104877132Y-114981107D01*
X104891747Y-114961401D01*
X104908223Y-114943223D01*
X104926401Y-114926747D01*
X104946107Y-114912132D01*
X104967150Y-114899520D01*
X104989329Y-114889030D01*
X105012428Y-114880765D01*
X105036227Y-114874804D01*
X105060495Y-114871204D01*
X105084999Y-114870000D01*
X105735001Y-114870000D01*
X105759505Y-114871204D01*
X105759505Y-114871204D01*
G37*
D15*
G04 #@! TD*
G04 #@! TO.P,R5,2*
G04 #@! TO.N,Net-(C1-Pad2)*
X105410000Y-115570000D03*
D11*
G04 #@! TO.N,Net-(C2-Pad1)*
G04 #@! TO.C,R5*
G36*
X107809505Y-114871204D02*
X107833773Y-114874804D01*
X107857572Y-114880765D01*
X107880671Y-114889030D01*
X107902850Y-114899520D01*
X107923893Y-114912132D01*
X107943599Y-114926747D01*
X107961777Y-114943223D01*
X107978253Y-114961401D01*
X107992868Y-114981107D01*
X108005480Y-115002150D01*
X108015970Y-115024329D01*
X108024235Y-115047428D01*
X108030196Y-115071227D01*
X108033796Y-115095495D01*
X108035000Y-115119999D01*
X108035000Y-116020001D01*
X108033796Y-116044505D01*
X108030196Y-116068773D01*
X108024235Y-116092572D01*
X108015970Y-116115671D01*
X108005480Y-116137850D01*
X107992868Y-116158893D01*
X107978253Y-116178599D01*
X107961777Y-116196777D01*
X107943599Y-116213253D01*
X107923893Y-116227868D01*
X107902850Y-116240480D01*
X107880671Y-116250970D01*
X107857572Y-116259235D01*
X107833773Y-116265196D01*
X107809505Y-116268796D01*
X107785001Y-116270000D01*
X107134999Y-116270000D01*
X107110495Y-116268796D01*
X107086227Y-116265196D01*
X107062428Y-116259235D01*
X107039329Y-116250970D01*
X107017150Y-116240480D01*
X106996107Y-116227868D01*
X106976401Y-116213253D01*
X106958223Y-116196777D01*
X106941747Y-116178599D01*
X106927132Y-116158893D01*
X106914520Y-116137850D01*
X106904030Y-116115671D01*
X106895765Y-116092572D01*
X106889804Y-116068773D01*
X106886204Y-116044505D01*
X106885000Y-116020001D01*
X106885000Y-115119999D01*
X106886204Y-115095495D01*
X106889804Y-115071227D01*
X106895765Y-115047428D01*
X106904030Y-115024329D01*
X106914520Y-115002150D01*
X106927132Y-114981107D01*
X106941747Y-114961401D01*
X106958223Y-114943223D01*
X106976401Y-114926747D01*
X106996107Y-114912132D01*
X107017150Y-114899520D01*
X107039329Y-114889030D01*
X107062428Y-114880765D01*
X107086227Y-114874804D01*
X107110495Y-114871204D01*
X107134999Y-114870000D01*
X107785001Y-114870000D01*
X107809505Y-114871204D01*
X107809505Y-114871204D01*
G37*
D15*
G04 #@! TD*
G04 #@! TO.P,R5,1*
G04 #@! TO.N,Net-(C2-Pad1)*
X107460000Y-115570000D03*
D11*
G04 #@! TO.N,Net-(D4-Pad4)*
G04 #@! TO.C,R6*
G36*
X114474505Y-100401204D02*
X114498773Y-100404804D01*
X114522572Y-100410765D01*
X114545671Y-100419030D01*
X114567850Y-100429520D01*
X114588893Y-100442132D01*
X114608599Y-100456747D01*
X114626777Y-100473223D01*
X114643253Y-100491401D01*
X114657868Y-100511107D01*
X114670480Y-100532150D01*
X114680970Y-100554329D01*
X114689235Y-100577428D01*
X114695196Y-100601227D01*
X114698796Y-100625495D01*
X114700000Y-100649999D01*
X114700000Y-101300001D01*
X114698796Y-101324505D01*
X114695196Y-101348773D01*
X114689235Y-101372572D01*
X114680970Y-101395671D01*
X114670480Y-101417850D01*
X114657868Y-101438893D01*
X114643253Y-101458599D01*
X114626777Y-101476777D01*
X114608599Y-101493253D01*
X114588893Y-101507868D01*
X114567850Y-101520480D01*
X114545671Y-101530970D01*
X114522572Y-101539235D01*
X114498773Y-101545196D01*
X114474505Y-101548796D01*
X114450001Y-101550000D01*
X113549999Y-101550000D01*
X113525495Y-101548796D01*
X113501227Y-101545196D01*
X113477428Y-101539235D01*
X113454329Y-101530970D01*
X113432150Y-101520480D01*
X113411107Y-101507868D01*
X113391401Y-101493253D01*
X113373223Y-101476777D01*
X113356747Y-101458599D01*
X113342132Y-101438893D01*
X113329520Y-101417850D01*
X113319030Y-101395671D01*
X113310765Y-101372572D01*
X113304804Y-101348773D01*
X113301204Y-101324505D01*
X113300000Y-101300001D01*
X113300000Y-100649999D01*
X113301204Y-100625495D01*
X113304804Y-100601227D01*
X113310765Y-100577428D01*
X113319030Y-100554329D01*
X113329520Y-100532150D01*
X113342132Y-100511107D01*
X113356747Y-100491401D01*
X113373223Y-100473223D01*
X113391401Y-100456747D01*
X113411107Y-100442132D01*
X113432150Y-100429520D01*
X113454329Y-100419030D01*
X113477428Y-100410765D01*
X113501227Y-100404804D01*
X113525495Y-100401204D01*
X113549999Y-100400000D01*
X114450001Y-100400000D01*
X114474505Y-100401204D01*
X114474505Y-100401204D01*
G37*
D15*
G04 #@! TD*
G04 #@! TO.P,R6,1*
G04 #@! TO.N,Net-(D4-Pad4)*
X114000000Y-100975000D03*
D11*
G04 #@! TO.N,Net-(R6-Pad2)*
G04 #@! TO.C,R6*
G36*
X114474505Y-102451204D02*
X114498773Y-102454804D01*
X114522572Y-102460765D01*
X114545671Y-102469030D01*
X114567850Y-102479520D01*
X114588893Y-102492132D01*
X114608599Y-102506747D01*
X114626777Y-102523223D01*
X114643253Y-102541401D01*
X114657868Y-102561107D01*
X114670480Y-102582150D01*
X114680970Y-102604329D01*
X114689235Y-102627428D01*
X114695196Y-102651227D01*
X114698796Y-102675495D01*
X114700000Y-102699999D01*
X114700000Y-103350001D01*
X114698796Y-103374505D01*
X114695196Y-103398773D01*
X114689235Y-103422572D01*
X114680970Y-103445671D01*
X114670480Y-103467850D01*
X114657868Y-103488893D01*
X114643253Y-103508599D01*
X114626777Y-103526777D01*
X114608599Y-103543253D01*
X114588893Y-103557868D01*
X114567850Y-103570480D01*
X114545671Y-103580970D01*
X114522572Y-103589235D01*
X114498773Y-103595196D01*
X114474505Y-103598796D01*
X114450001Y-103600000D01*
X113549999Y-103600000D01*
X113525495Y-103598796D01*
X113501227Y-103595196D01*
X113477428Y-103589235D01*
X113454329Y-103580970D01*
X113432150Y-103570480D01*
X113411107Y-103557868D01*
X113391401Y-103543253D01*
X113373223Y-103526777D01*
X113356747Y-103508599D01*
X113342132Y-103488893D01*
X113329520Y-103467850D01*
X113319030Y-103445671D01*
X113310765Y-103422572D01*
X113304804Y-103398773D01*
X113301204Y-103374505D01*
X113300000Y-103350001D01*
X113300000Y-102699999D01*
X113301204Y-102675495D01*
X113304804Y-102651227D01*
X113310765Y-102627428D01*
X113319030Y-102604329D01*
X113329520Y-102582150D01*
X113342132Y-102561107D01*
X113356747Y-102541401D01*
X113373223Y-102523223D01*
X113391401Y-102506747D01*
X113411107Y-102492132D01*
X113432150Y-102479520D01*
X113454329Y-102469030D01*
X113477428Y-102460765D01*
X113501227Y-102454804D01*
X113525495Y-102451204D01*
X113549999Y-102450000D01*
X114450001Y-102450000D01*
X114474505Y-102451204D01*
X114474505Y-102451204D01*
G37*
D15*
G04 #@! TD*
G04 #@! TO.P,R6,2*
G04 #@! TO.N,Net-(R6-Pad2)*
X114000000Y-103025000D03*
D11*
G04 #@! TO.N,Net-(R7-Pad1)*
G04 #@! TO.C,R7*
G36*
X98899505Y-123641204D02*
X98923773Y-123644804D01*
X98947572Y-123650765D01*
X98970671Y-123659030D01*
X98992850Y-123669520D01*
X99013893Y-123682132D01*
X99033599Y-123696747D01*
X99051777Y-123713223D01*
X99068253Y-123731401D01*
X99082868Y-123751107D01*
X99095480Y-123772150D01*
X99105970Y-123794329D01*
X99114235Y-123817428D01*
X99120196Y-123841227D01*
X99123796Y-123865495D01*
X99125000Y-123889999D01*
X99125000Y-124540001D01*
X99123796Y-124564505D01*
X99120196Y-124588773D01*
X99114235Y-124612572D01*
X99105970Y-124635671D01*
X99095480Y-124657850D01*
X99082868Y-124678893D01*
X99068253Y-124698599D01*
X99051777Y-124716777D01*
X99033599Y-124733253D01*
X99013893Y-124747868D01*
X98992850Y-124760480D01*
X98970671Y-124770970D01*
X98947572Y-124779235D01*
X98923773Y-124785196D01*
X98899505Y-124788796D01*
X98875001Y-124790000D01*
X97974999Y-124790000D01*
X97950495Y-124788796D01*
X97926227Y-124785196D01*
X97902428Y-124779235D01*
X97879329Y-124770970D01*
X97857150Y-124760480D01*
X97836107Y-124747868D01*
X97816401Y-124733253D01*
X97798223Y-124716777D01*
X97781747Y-124698599D01*
X97767132Y-124678893D01*
X97754520Y-124657850D01*
X97744030Y-124635671D01*
X97735765Y-124612572D01*
X97729804Y-124588773D01*
X97726204Y-124564505D01*
X97725000Y-124540001D01*
X97725000Y-123889999D01*
X97726204Y-123865495D01*
X97729804Y-123841227D01*
X97735765Y-123817428D01*
X97744030Y-123794329D01*
X97754520Y-123772150D01*
X97767132Y-123751107D01*
X97781747Y-123731401D01*
X97798223Y-123713223D01*
X97816401Y-123696747D01*
X97836107Y-123682132D01*
X97857150Y-123669520D01*
X97879329Y-123659030D01*
X97902428Y-123650765D01*
X97926227Y-123644804D01*
X97950495Y-123641204D01*
X97974999Y-123640000D01*
X98875001Y-123640000D01*
X98899505Y-123641204D01*
X98899505Y-123641204D01*
G37*
D15*
G04 #@! TD*
G04 #@! TO.P,R7,1*
G04 #@! TO.N,Net-(R7-Pad1)*
X98425000Y-124215000D03*
D11*
G04 #@! TO.N,Net-(C1-Pad1)*
G04 #@! TO.C,R7*
G36*
X98899505Y-121591204D02*
X98923773Y-121594804D01*
X98947572Y-121600765D01*
X98970671Y-121609030D01*
X98992850Y-121619520D01*
X99013893Y-121632132D01*
X99033599Y-121646747D01*
X99051777Y-121663223D01*
X99068253Y-121681401D01*
X99082868Y-121701107D01*
X99095480Y-121722150D01*
X99105970Y-121744329D01*
X99114235Y-121767428D01*
X99120196Y-121791227D01*
X99123796Y-121815495D01*
X99125000Y-121839999D01*
X99125000Y-122490001D01*
X99123796Y-122514505D01*
X99120196Y-122538773D01*
X99114235Y-122562572D01*
X99105970Y-122585671D01*
X99095480Y-122607850D01*
X99082868Y-122628893D01*
X99068253Y-122648599D01*
X99051777Y-122666777D01*
X99033599Y-122683253D01*
X99013893Y-122697868D01*
X98992850Y-122710480D01*
X98970671Y-122720970D01*
X98947572Y-122729235D01*
X98923773Y-122735196D01*
X98899505Y-122738796D01*
X98875001Y-122740000D01*
X97974999Y-122740000D01*
X97950495Y-122738796D01*
X97926227Y-122735196D01*
X97902428Y-122729235D01*
X97879329Y-122720970D01*
X97857150Y-122710480D01*
X97836107Y-122697868D01*
X97816401Y-122683253D01*
X97798223Y-122666777D01*
X97781747Y-122648599D01*
X97767132Y-122628893D01*
X97754520Y-122607850D01*
X97744030Y-122585671D01*
X97735765Y-122562572D01*
X97729804Y-122538773D01*
X97726204Y-122514505D01*
X97725000Y-122490001D01*
X97725000Y-121839999D01*
X97726204Y-121815495D01*
X97729804Y-121791227D01*
X97735765Y-121767428D01*
X97744030Y-121744329D01*
X97754520Y-121722150D01*
X97767132Y-121701107D01*
X97781747Y-121681401D01*
X97798223Y-121663223D01*
X97816401Y-121646747D01*
X97836107Y-121632132D01*
X97857150Y-121619520D01*
X97879329Y-121609030D01*
X97902428Y-121600765D01*
X97926227Y-121594804D01*
X97950495Y-121591204D01*
X97974999Y-121590000D01*
X98875001Y-121590000D01*
X98899505Y-121591204D01*
X98899505Y-121591204D01*
G37*
D15*
G04 #@! TD*
G04 #@! TO.P,R7,2*
G04 #@! TO.N,Net-(C1-Pad1)*
X98425000Y-122165000D03*
D17*
G04 #@! TO.P,RV1,1*
G04 #@! TO.N,Net-(R1-Pad2)*
X111030000Y-122040000D03*
D18*
G04 #@! TO.P,RV1,2*
G04 #@! TO.N,N/C*
X115030000Y-123190000D03*
D17*
G04 #@! TO.P,RV1,3*
X111030000Y-124340000D03*
G04 #@! TD*
D19*
G04 #@! TO.P,S1,1*
G04 #@! TO.N,Net-(C1-Pad2)*
X93656443Y-113650723D03*
G04 #@! TO.P,S1,2*
G04 #@! TO.N,N/C*
X90406443Y-119279889D03*
G04 #@! TO.P,S1,3*
G04 #@! TO.N,Net-(S1-Pad3)*
X97553557Y-115900723D03*
G04 #@! TO.P,S1,4*
G04 #@! TO.N,Net-(R7-Pad1)*
X94303557Y-121529889D03*
G04 #@! TD*
D20*
G04 #@! TO.P,SW1,2*
G04 #@! TO.N,Net-(C1-Pad1)*
X101620000Y-57900000D03*
G04 #@! TO.P,SW1,1*
G04 #@! TO.N,N/C*
X101620000Y-54900000D03*
G04 #@! TO.P,SW1,3*
G04 #@! TO.N,Net-(SW1-Pad3)*
X101620000Y-59400000D03*
D21*
G04 #@! TO.P,SW1,S2*
G04 #@! TO.N,Net-(SW1-PadS1)*
X104335000Y-53500000D03*
G04 #@! TO.P,SW1,S3*
X104335000Y-60800000D03*
G04 #@! TO.P,SW1,S1*
X102405000Y-53500000D03*
G04 #@! TO.P,SW1,S4*
X102405000Y-60800000D03*
G04 #@! TD*
D22*
G04 #@! TO.P,U1,1*
G04 #@! TO.N,Net-(S1-Pad3)*
X105410000Y-99060000D03*
D23*
G04 #@! TO.P,U1,5*
G04 #@! TO.N,Net-(BZ1-Pad1)*
X97790000Y-106680000D03*
G04 #@! TO.P,U1,2*
G04 #@! TO.N,Net-(C2-Pad1)*
X105410000Y-101600000D03*
G04 #@! TO.P,U1,6*
G04 #@! TO.N,/worm2*
X97790000Y-104140000D03*
G04 #@! TO.P,U1,3*
G04 #@! TO.N,Net-(R6-Pad2)*
X105410000Y-104140000D03*
G04 #@! TO.P,U1,7*
G04 #@! TO.N,Net-(R1-Pad2)*
X97790000Y-101600000D03*
G04 #@! TO.P,U1,4*
G04 #@! TO.N,Net-(C1-Pad2)*
X105410000Y-106680000D03*
G04 #@! TO.P,U1,8*
G04 #@! TO.N,Net-(C1-Pad1)*
X97790000Y-99060000D03*
G04 #@! TD*
D24*
G04 #@! TO.P,U2,+@1*
G04 #@! TO.N,Net-(SW1-Pad3)*
X83458630Y-90826057D03*
D11*
G04 #@! TD*
G04 #@! TO.N,Net-(SW1-Pad3)*
G04 #@! TO.C,U2*
G36*
X83282046Y-93660368D02*
X81297132Y-88984203D01*
X83635214Y-87991746D01*
X85620128Y-92667911D01*
X83282046Y-93660368D01*
X83282046Y-93660368D01*
G37*
D24*
G04 #@! TO.P,U2,+@2*
G04 #@! TO.N,Net-(SW1-Pad3)*
X104501370Y-81893943D03*
D11*
G04 #@! TD*
G04 #@! TO.N,Net-(SW1-Pad3)*
G04 #@! TO.C,U2*
G36*
X104324786Y-84728254D02*
X102339872Y-80052089D01*
X104677954Y-79059632D01*
X106662868Y-83735797D01*
X104324786Y-84728254D01*
X104324786Y-84728254D01*
G37*
D25*
G04 #@! TO.P,U2,-*
G04 #@! TO.N,Net-(C1-Pad2)*
X93980000Y-86360000D03*
G04 #@! TD*
D26*
G04 #@! TO.N,*
X110500000Y-129500000D03*
G04 #@! TO.N,Net-(C1-Pad1)*
X102000000Y-65000000D03*
X100000000Y-103000000D03*
X96000000Y-101000000D03*
X92000000Y-100000000D03*
X107000000Y-105000000D03*
X107000000Y-113000000D03*
X109000000Y-123000000D03*
X90500000Y-105000000D03*
G04 #@! TO.N,Net-(C1-Pad2)*
X87000000Y-93000000D03*
X85000000Y-95000000D03*
X103000000Y-102000000D03*
X104470000Y-65625000D03*
X93000000Y-76190000D03*
X93000000Y-74940000D03*
X111500000Y-91000000D03*
G04 #@! TO.N,Net-(D3-Pad4)*
X107000000Y-62000000D03*
X111000000Y-89000000D03*
G04 #@! TO.N,Net-(D4-Pad4)*
X105000000Y-62000000D03*
G04 #@! TO.N,Net-(R1-Pad2)*
X101000000Y-115000000D03*
G04 #@! TO.N,/worm2*
X93000000Y-99375000D03*
X93000000Y-99375000D03*
X91389990Y-110500000D03*
X91500000Y-129500000D03*
G04 #@! TO.N,Net-(R6-Pad2)*
X107500000Y-103500000D03*
X109000000Y-100500000D03*
G04 #@! TD*
D27*
G04 #@! TO.N,*
X115030000Y-124970000D02*
X110500000Y-129500000D01*
X115030000Y-123190000D02*
X115030000Y-124970000D01*
G04 #@! TO.N,Net-(BZ1-Pad1)*
X97790000Y-107811370D02*
X97790000Y-106680000D01*
X97790000Y-111106688D02*
X97790000Y-107811370D01*
X94171964Y-114724724D02*
X97790000Y-111106688D01*
X93140922Y-114724724D02*
X94171964Y-114724724D01*
X92014990Y-109868180D02*
X92014990Y-113598792D01*
X81663540Y-99516730D02*
X92014990Y-109868180D01*
X92014990Y-113598792D02*
X93140922Y-114724724D01*
X76228671Y-99516730D02*
X81663540Y-99516730D01*
G04 #@! TO.N,Net-(BZ1-Pad2)*
X74908945Y-92032191D02*
X79032191Y-92032191D01*
X88600000Y-101600000D02*
X90415000Y-101600000D01*
X79032191Y-92032191D02*
X88600000Y-101600000D01*
G04 #@! TO.N,Net-(C1-Pad1)*
X103130001Y-63869999D02*
X102000000Y-65000000D01*
X103130001Y-60039999D02*
X103130001Y-63869999D01*
X104145001Y-59024999D02*
X103130001Y-60039999D01*
X102020000Y-57900000D02*
X102620000Y-57300000D01*
X102620000Y-57300000D02*
X103167002Y-57300000D01*
X104145001Y-58277999D02*
X104145001Y-59024999D01*
X103167002Y-57300000D02*
X104145001Y-58277999D01*
X101620000Y-57900000D02*
X102020000Y-57900000D01*
X98589999Y-98260001D02*
X97790000Y-99060000D01*
X109875010Y-86974990D02*
X98589999Y-98260001D01*
X109875010Y-69161820D02*
X109875010Y-86974990D01*
X105713190Y-65000000D02*
X109875010Y-69161820D01*
X102000000Y-65000000D02*
X105713190Y-65000000D01*
X97790000Y-99060000D02*
X100000000Y-101270000D01*
X100000000Y-101270000D02*
X100000000Y-103000000D01*
X96000000Y-101000000D02*
X95000000Y-100000000D01*
X95000000Y-100000000D02*
X92000000Y-100000000D01*
X107000000Y-110565000D02*
X108195000Y-111760000D01*
X107000000Y-105000000D02*
X107000000Y-110565000D01*
X108195000Y-111760000D02*
X107000000Y-112955000D01*
X107000000Y-112955000D02*
X107000000Y-113000000D01*
X99048372Y-122788372D02*
X98425000Y-122165000D01*
X102145010Y-125885010D02*
X99048372Y-122788372D01*
X106114990Y-125885010D02*
X102145010Y-125885010D01*
X109000000Y-123000000D02*
X106114990Y-125885010D01*
X90500000Y-106595000D02*
X90415000Y-106680000D01*
X90500000Y-105000000D02*
X90500000Y-106595000D01*
G04 #@! TO.N,Net-(C1-Pad2)*
X104910000Y-116070000D02*
X105410000Y-115570000D01*
X105410000Y-115570000D02*
X105410000Y-106680000D01*
X107143190Y-117475000D02*
X104910000Y-117475000D01*
X104910000Y-117475000D02*
X104910000Y-116070000D01*
X104910000Y-122935000D02*
X104910000Y-117475000D01*
X93640000Y-86360000D02*
X87000000Y-93000000D01*
X93980000Y-86360000D02*
X93640000Y-86360000D01*
X91841628Y-100976628D02*
X92465000Y-101600000D01*
X86164999Y-95299999D02*
X91841628Y-100976628D01*
X85299999Y-95299999D02*
X86164999Y-95299999D01*
X85000000Y-95000000D02*
X85299999Y-95299999D01*
X92465000Y-101600000D02*
X92465000Y-106680000D01*
X92465000Y-112459280D02*
X93656443Y-113650723D01*
X92465000Y-106680000D02*
X92465000Y-112459280D01*
X99734999Y-105265001D02*
X103000000Y-102000000D01*
X96130001Y-105265001D02*
X99734999Y-105265001D01*
X92465000Y-101600000D02*
X96130001Y-105265001D01*
X103609228Y-75878493D02*
X104376560Y-75111161D01*
X103609228Y-76230456D02*
X103609228Y-75878493D01*
X101417265Y-77246417D02*
X102593267Y-77246417D01*
X100780265Y-76609417D02*
X101417265Y-77246417D01*
X102593267Y-77246417D02*
X103609228Y-76230456D01*
X104470000Y-65625000D02*
X100780265Y-69314735D01*
X105410000Y-107811370D02*
X105410000Y-106680000D01*
X105410000Y-109633802D02*
X105410000Y-107811370D01*
X98069078Y-116974724D02*
X105410000Y-109633802D01*
X97038036Y-116974724D02*
X98069078Y-116974724D01*
X96479556Y-116416244D02*
X97038036Y-116974724D01*
X96479556Y-115385202D02*
X96479556Y-116416244D01*
X103000000Y-108864758D02*
X96479556Y-115385202D01*
X103000000Y-102000000D02*
X103000000Y-108864758D01*
X93980000Y-86360000D02*
X93980000Y-77980000D01*
X93980000Y-77170000D02*
X93000000Y-76190000D01*
X93980000Y-86360000D02*
X93980000Y-77170000D01*
X93000000Y-74940000D02*
X97840265Y-74940000D01*
X100780265Y-72000000D02*
X100780265Y-76609417D01*
X97840265Y-74940000D02*
X100780265Y-72000000D01*
X100780265Y-69314735D02*
X100780265Y-72000000D01*
X113869985Y-93369985D02*
X119525175Y-93369985D01*
X111500000Y-91000000D02*
X113869985Y-93369985D01*
G04 #@! TO.N,Net-(C2-Pad2)*
X111005882Y-98987324D02*
X111005882Y-97342596D01*
X111005882Y-99569072D02*
X111005882Y-98987324D01*
X113311820Y-101875010D02*
X111005882Y-99569072D01*
X115799990Y-101875010D02*
X113311820Y-101875010D01*
X118700000Y-98975000D02*
X115799990Y-101875010D01*
X119500000Y-98975000D02*
X118700000Y-98975000D01*
G04 #@! TO.N,Net-(C2-Pad1)*
X108580000Y-101600000D02*
X105410000Y-101600000D01*
X111760000Y-104780000D02*
X108580000Y-101600000D01*
X111760000Y-106680000D02*
X111760000Y-104780000D01*
X111760000Y-110245000D02*
X110245000Y-111760000D01*
X111760000Y-106680000D02*
X111760000Y-110245000D01*
X110245000Y-112785000D02*
X107460000Y-115570000D01*
X110245000Y-111760000D02*
X110245000Y-112785000D01*
X115745000Y-104780000D02*
X111760000Y-104780000D01*
X119500000Y-101025000D02*
X115745000Y-104780000D01*
G04 #@! TO.N,Net-(D1-Pad2)*
X102005266Y-74769734D02*
X102005266Y-76021416D01*
X106925000Y-69850000D02*
X102005266Y-74769734D01*
G04 #@! TO.N,Net-(D3-Pad4)*
X111000000Y-66000000D02*
X111000000Y-88197605D01*
X107000000Y-62000000D02*
X111000000Y-66000000D01*
X111000000Y-88197605D02*
X111000000Y-89000000D01*
G04 #@! TO.N,Net-(D4-Pad4)*
X114000000Y-100300000D02*
X114000000Y-100975000D01*
X114000000Y-95080458D02*
X114000000Y-100300000D01*
X110325020Y-91405478D02*
X114000000Y-95080458D01*
X110325020Y-67325020D02*
X110325020Y-91405478D01*
X105000000Y-62000000D02*
X110325020Y-67325020D01*
G04 #@! TO.N,Net-(R1-Pad2)*
X107855000Y-122040000D02*
X104910000Y-124985000D01*
X111030000Y-122040000D02*
X107855000Y-122040000D01*
X101000000Y-121075000D02*
X104910000Y-124985000D01*
X101000000Y-115000000D02*
X101000000Y-121075000D01*
G04 #@! TO.N,/worm2*
X96664999Y-97645001D02*
X96664999Y-103014999D01*
X103505000Y-90805000D02*
X96664999Y-97645001D01*
X103505000Y-88265000D02*
X103505000Y-90805000D01*
X96990001Y-103340001D02*
X97790000Y-104140000D01*
X107950000Y-83820000D02*
X103505000Y-88265000D01*
X96664999Y-103014999D02*
X96990001Y-103340001D01*
X107950000Y-82550000D02*
X107950000Y-83820000D01*
X106987878Y-81587878D02*
X107950000Y-82550000D01*
X106987878Y-71837122D02*
X106987878Y-81587878D01*
X108975000Y-69850000D02*
X106987878Y-71837122D01*
X96664999Y-97645001D02*
X96664999Y-99500000D01*
X96664999Y-99500000D02*
X96664999Y-100835001D01*
X93000000Y-99500000D02*
X93000000Y-99375000D01*
X96664999Y-99500000D02*
X93000000Y-99375000D01*
X91389990Y-110924264D02*
X89332442Y-112981812D01*
X91389990Y-110500000D02*
X91389990Y-110924264D01*
X89332442Y-112981812D02*
X89332442Y-127332442D01*
X89332442Y-127332442D02*
X91500000Y-129500000D01*
G04 #@! TO.N,Net-(R6-Pad2)*
X106860000Y-104140000D02*
X107500000Y-103500000D01*
X105410000Y-104140000D02*
X106860000Y-104140000D01*
X111525000Y-103025000D02*
X114000000Y-103025000D01*
X109000000Y-100500000D02*
X111525000Y-103025000D01*
G04 #@! TO.N,Net-(R7-Pad1)*
X96988668Y-124215000D02*
X94303557Y-121529889D01*
X98425000Y-124215000D02*
X96988668Y-124215000D01*
G04 #@! TO.N,Net-(S1-Pad3)*
X104360000Y-99060000D02*
X105410000Y-99060000D01*
X104284999Y-99135001D02*
X104360000Y-99060000D01*
X104284999Y-109169281D02*
X104284999Y-99135001D01*
X97553557Y-115900723D02*
X104284999Y-109169281D01*
G04 #@! TO.N,Net-(SW1-Pad3)*
X101220000Y-59400000D02*
X101620000Y-59400000D01*
X88900000Y-71720000D02*
X101220000Y-59400000D01*
X89535000Y-75565000D02*
X88900000Y-74930000D01*
X88900000Y-74930000D02*
X88900000Y-71720000D01*
X98172427Y-75565000D02*
X89535000Y-75565000D01*
X104501370Y-81893943D02*
X98172427Y-75565000D01*
X103054990Y-90618600D02*
X97673590Y-96000000D01*
X103054990Y-88078600D02*
X103054990Y-90618600D01*
X104501370Y-86632220D02*
X103054990Y-88078600D01*
X104501370Y-81893943D02*
X104501370Y-86632220D01*
X88632573Y-96000000D02*
X83458630Y-90826057D01*
X97673590Y-96000000D02*
X88632573Y-96000000D01*
G04 #@! TO.N,Net-(SW1-PadS1)*
X104335000Y-53500000D02*
X102405000Y-53500000D01*
G04 #@! TD*
M02*
