G04 #@! TF.GenerationSoftware,KiCad,Pcbnew,(5.0.0-3-g5ebb6b6)*
G04 #@! TF.CreationDate,2019-04-08T21:46:59+02:00*
G04 #@! TF.ProjectId,sensor,73656E736F722E6B696361645F706362,rev?*
G04 #@! TF.SameCoordinates,Original*
G04 #@! TF.FileFunction,Other,ECO1*
%FSLAX46Y46*%
G04 Gerber Fmt 4.6, Leading zero omitted, Abs format (unit mm)*
G04 Created by KiCad (PCBNEW (5.0.0-3-g5ebb6b6)) date Monday, 08. April 2019 um 21:46:59*
%MOMM*%
%LPD*%
G01*
G04 APERTURE LIST*
%ADD10C,0.050000*%
G04 APERTURE END LIST*
D10*
G04 #@! TO.C,J2*
X121525403Y-91389054D02*
X122624211Y-93745454D01*
X123791173Y-90332508D02*
X121525403Y-91389054D01*
X121466772Y-85347815D02*
X123791173Y-90332508D01*
X119201003Y-86404361D02*
X121466772Y-85347815D01*
X118102196Y-84047961D02*
X119201003Y-86404361D01*
X109029594Y-100084728D02*
X122624211Y-93745454D01*
X104507579Y-90387235D02*
X109029594Y-100084728D01*
X118102196Y-84047961D02*
X104507579Y-90387235D01*
G04 #@! TO.C,S1*
X93290417Y-112284698D02*
X89040417Y-119645914D01*
X89040417Y-119645914D02*
X94669583Y-122895914D01*
X94669583Y-122895914D02*
X98919583Y-115534698D01*
X98919583Y-115534698D02*
X93290417Y-112284698D01*
G04 #@! TO.C,SW1*
X100620000Y-54300000D02*
X100620000Y-60000000D01*
X101755000Y-61550000D02*
X104985000Y-61550000D01*
X104985000Y-61550000D02*
X104985000Y-58900000D01*
X104985000Y-58900000D02*
X106420000Y-58900000D01*
X106420000Y-58900000D02*
X106420000Y-55400000D01*
X106420000Y-55400000D02*
X104985000Y-55400000D01*
X104985000Y-55400000D02*
X104985000Y-52750000D01*
X104985000Y-52750000D02*
X101755000Y-52750000D01*
X101755000Y-52750000D02*
X101755000Y-54300000D01*
X101755000Y-54300000D02*
X100620000Y-54300000D01*
X100620000Y-60000000D02*
X101755000Y-60000000D01*
X101755000Y-60000000D02*
X101755000Y-61550000D01*
G04 #@! TD*
M02*
